Bad,Good,Score,Common,A_ID
20.0,0.0,1.8,80.0,B1
12.0,8.0,1.9600000000000002,80.0,B2
20.0,4.0,1.8399999999999999,76.0,Ours
16.0,0.0,1.8399999999999999,84.0,B1
4.0,16.0,2.12,80.0,B2
8.0,12.0,2.04,80.0,Ours
Bad,Good,Score,Common,A_ID
20.0,0.0,1.8,80.0,B1
12.0,8.0,1.9600000000000002,80.0,B2
20.0,4.0,1.8399999999999999,76.0,Ours
16.0,0.0,1.8399999999999999,84.0,B1
4.0,24.0,2.2,72.0,B2
12.0,16.0,2.04,72.0,Ours
Bad,Good,Score,Common,A_ID
20.0,0.0,1.8,80.0,B1
12.0,8.0,1.9600000000000002,80.0,B2
20.0,4.0,1.8399999999999999,76.0,Ours
16.0,0.0,1.8399999999999999,84.0,B1
4.0,24.0,2.2,72.0,B2
12.0,16.0,2.04,72.0,Ours
Bad,Good,Score,Common,A_ID
20.0,0.0,1.8,80.0,B1
12.0,8.0,1.9600000000000002,80.0,B2
20.0,4.0,1.8399999999999999,76.0,Ours
16.0,0.0,1.8399999999999999,84.0,B1
4.0,24.0,2.2,72.0,B2
8.0,20.0,2.12,72.0,Ours
Bad,Good,Score,Common,A_ID
20.0,0.0,1.8,80.0,B1
8.0,8.0,2.0,84.0,B2
16.0,4.0,1.88,80.0,Ours
16.0,0.0,1.8399999999999999,84.0,B1
4.0,24.0,2.2,72.0,B2
12.0,16.0,2.04,72.0,Ours
Bad,Good,Score,Common,A_ID
20.0,0.0,1.8,80.0,B1
8.0,8.0,2.0,84.0,B2
16.0,4.0,1.88,80.0,Ours
16.0,0.0,1.8399999999999999,84.0,B1
4.0,24.0,2.2,72.0,B2
12.0,16.0,2.04,72.0,Ours
Bad,Good,Score,Common,A_ID
20.0,0.0,1.8,80.0,B1
8.0,8.0,2.0,84.0,B2
16.0,4.0,1.88,80.0,Ours
16.0,0.0,1.8399999999999999,84.0,B1
4.0,28.000000000000004,2.24,68.0,B2
8.0,20.0,2.12,72.0,Ours
Bad,Good,Score,Common,A_ID
20.0,0.0,1.8,80.0,B1
8.0,8.0,2.0,84.0,B2
16.0,4.0,1.88,80.0,Ours
16.0,0.0,1.8399999999999999,84.0,B1
4.0,28.000000000000004,2.24,68.0,B2
8.0,20.0,2.12,72.0,Ours
